{
  "keys": ["currency", "country", "city"],
  "data": [{
    "country": "US",
    "city": "Boston",
    "currency": "USD",
    "amount": 100
  }, {
    "country": "FR",
    "city": "Paris",
    "currency": "EUR",
    "amount": 20
  }, {
    "country": "FR",
    "city": "Lyon",
    "currency": "EUR",
    "amount": 11.4
  }, {
    "country": "ES",
    "city": "Madrid",
    "currency": "EUR",
    "amount": 8.9
  }, {
    "country": "UK",
    "city": "London",
    "currency": "GBP",
    "amount": 12.2
  }, {
    "country": "UK",
    "city": "London",
    "currency": "FBP",
    "amount": 10.9
  }]
}